{
	"name": "TinyMCE",
	"description": "Download TinyMCE for free, the most advanced WYSWIYG HTML editor designed to simplify website content creation.",
	"autor": "Master IV",
	"php_editor": {"tinymce": "TinyMCE" },
	"html_editor": {"tinymce": "TinyMCE" }
}
